Analyses for ‘The Value of Choice Facilitates Subsequent Memory Across Development’
…
Supplementary Table 1

# see 3.2.1 Recognition Memory, chunk title "recognitionMemory_withReward"
CHR_byGalaxyAgencyReward_table

## # A tibble: 36 x 8
## # Groups:   ageGrp, galaxy, agency [18]
##    ageGrp galaxy agency    reward meanHR  sdHR meanFAR sdFAR
##    <fct>  <fct>  <fct>      <dbl>  <dbl> <dbl>   <dbl> <dbl>
##  1 child  gEqual autopilot      0  0.5   0.229   0.134 0.155
##  2 child  gEqual autopilot      1  0.544 0.2     0.134 0.155
##  3 child  gEqual captain        0  0.514 0.232   0.134 0.155
##  4 child  gEqual captain        1  0.553 0.219   0.134 0.155
##  5 child  gRand  autopilot      0  0.48  0.237   0.134 0.155
##  6 child  gRand  autopilot      1  0.535 0.226   0.134 0.155
##  7 child  gRand  captain        0  0.569 0.227   0.134 0.155
##  8 child  gRand  captain        1  0.574 0.251   0.134 0.155
##  9 child  gYoked autopilot      0  0.567 0.186   0.134 0.155
## 10 child  gYoked autopilot      1  0.527 0.209   0.134 0.155
## # … with 26 more rows
…
